{
  "tasks": [
    {
      "text": "tezak",
      "day": "hamra",
      "reminder": true,
      "id": 1
    },
    {
      "text": "tezak",
      "day": "gamda",
      "reminder": true,
      "id": 2
    }
  ]
}